server {
    listen 80;

    server_name gserv.me;

    location / {
        return 301 https://$server_name$request_uri;
    }

    location ~* /\.well-known/acme-challenge/.* {
        allow all;
        root /srv/acme;
        try_files $uri =404;
    }
}

server {
    listen 443 ssl http2;
    server_name gserv.me;

    ssl_certificate /etc/letsencrypt/live/gserv.me/fullchain.pem;
    ssl_certificate_key /etc/letsencrypt/live/gserv.me/privkey.pem;

    client_max_body_size 100M;

    location / {
        proxy_pass http://localhost:2368/;

        proxy_set_header Host $host;
        proxy_set_header Upgrade $http_upgrade;
        proxy_set_header X-Forwarded-For $proxy_add_x_forwarded_for;
        proxy_set_header X-Forwarded-Proto $scheme;
        proxy_set_header X-Real-IP $remote_addr;
    }

    location ~* /\.well-known/acme-challenge/.* {
        allow all;
        root /srv/acme;
        try_files $uri =404;
    }
}
